%YAML 1.1
%TAG !u! tag:unity3d.com,2011:
--- !u!74 &7400000
AnimationClip:
  m_ObjectHideFlags: 0
  m_PrefabParentObject: {fileID: 0}
  m_PrefabInternal: {fileID: 0}
  m_Name: RollingStone
  serializedVersion: 6
  m_Legacy: 0
  m_Compressed: 0
  m_UseHighQualityCurve: 1
  m_RotationCurves: []
  m_CompressedRotationCurves: []
  m_EulerCurves:
  - curve:
      serializedVersion: 2
      m_Curve:
      - time: 0
        value: {x: 0, y: 0, z: 0}
        inSlope: {x: 0, y: 0, z: -360}
        outSlope: {x: 0, y: 0, z: -360}
        tangentMode: 0
      - time: 1
        value: {x: 0, y: 0, z: -360}
        inSlope: {x: 0, y: 0, z: -742.4999}
        outSlope: {x: 0, y: 0, z: -742.4999}
        tangentMode: 0
      - time: 1.32
        value: {x: 0, y: 0, z: -720}
        inSlope: {x: 0, y: 0, z: -937.5}
        outSlope: {x: 0, y: 0, z: -937.5}
        tangentMode: 0
      - time: 1.8
        value: {x: 0, y: 0, z: -1080}
        inSlope: {x: 0, y: 0, z: -675}
        outSlope: {x: 0, y: 0, z: -675}
        tangentMode: 0
      - time: 2.4
        value: {x: 0, y: 0, z: -1440}
        inSlope: {x: 0, y: 0, z: -599.9999}
        outSlope: {x: 0, y: 0, z: -599.9999}
        tangentMode: 0
      m_PreInfinity: 2
      m_PostInfinity: 2
      m_RotationOrder: 4
    path: 
  m_PositionCurves: []
  m_ScaleCurves: []
  m_FloatCurves:
  - curve:
      serializedVersion: 2
      m_Curve:
      - time: 0
        value: -1326
        inSlope: 960.606
        outSlope: 960.606
        tangentMode: 10
      - time: 1.32
        value: -58
        inSlope: 707.9072
        outSlope: 707.9072
        tangentMode: 10
      - time: 2.28
        value: 379
        inSlope: 335.9374
        outSlope: 335.9374
        tangentMode: 10
      - time: 2.4
        value: 405
        inSlope: 216.66644
        outSlope: 216.66644
        tangentMode: 10
      m_PreInfinity: 2
      m_PostInfinity: 2
      m_RotationOrder: 4
    attribute: m_AnchoredPosition.x
    path: 
    classID: 224
    script: {fileID: 0}
  - curve:
      serializedVersion: 2
      m_Curve:
      - time: 0
        value: 31.5
        inSlope: 61.74242
        outSlope: 61.74242
        tangentMode: 10
      - time: 1.32
        value: 113
        inSlope: 32.954544
        outSlope: 32.954544
        tangentMode: 10
      - time: 2.28
        value: 117
        inSlope: -354.1663
        outSlope: -354.1663
        tangentMode: 10
      - time: 2.4
        value: 31.5
        inSlope: -712.49927
        outSlope: -712.49927
        tangentMode: 10
      m_PreInfinity: 2
      m_PostInfinity: 2
      m_RotationOrder: 4
    attribute: m_AnchoredPosition.y
    path: 
    classID: 224
    script: {fileID: 0}
  - curve:
      serializedVersion: 2
      m_Curve:
      - time: 0
        value: 0
        inSlope: 79.16662
        outSlope: 79.16662
        tangentMode: 10
      - time: 1.32
        value: 104.49994
        inSlope: 79.16667
        outSlope: 79.16667
        tangentMode: 10
      - time: 2.4
        value: 190
        inSlope: 79.16672
        outSlope: 79.16672
        tangentMode: 10
      m_PreInfinity: 2
      m_PostInfinity: 2
      m_RotationOrder: 4
    attribute: m_LocalPosition.z
    path: 
    classID: 224
    script: {fileID: 0}
  m_PPtrCurves: []
  m_SampleRate: 25
  m_WrapMode: 0
  m_Bounds:
    m_Center: {x: 0, y: 0, z: 0}
    m_Extent: {x: 0, y: 0, z: 0}
  m_ClipBindingConstant:
    genericBindings:
    - path: 0
      attribute: 4
      script: {fileID: 0}
      classID: 4
      customType: 14
      isPPtrCurve: 0
    - path: 0
      attribute: 1460864421
      script: {fileID: 0}
      classID: 224
      customType: 0
      isPPtrCurve: 0
    - path: 0
      attribute: 538195251
      script: {fileID: 0}
      classID: 224
      customType: 0
      isPPtrCurve: 0
    - path: 0
      attribute: 2033536083
      script: {fileID: 0}
      classID: 224
      customType: 28
      isPPtrCurve: 0
    pptrCurveMapping: []
  m_AnimationClipSettings:
    serializedVersion: 2
    m_AdditiveReferencePoseClip: {fileID: 0}
    m_AdditiveReferencePoseTime: 0
    m_StartTime: 0
    m_StopTime: 2.4
    m_OrientationOffsetY: 0
    m_Level: 0
    m_CycleOffset: 0
    m_HasAdditiveReferencePose: 0
    m_LoopTime: 1
    m_LoopBlend: 0
    m_LoopBlendOrientation: 0
    m_LoopBlendPositionY: 0
    m_LoopBlendPositionXZ: 0
    m_KeepOriginalOrientation: 0
    m_KeepOriginalPositionY: 1
    m_KeepOriginalPositionXZ: 0
    m_HeightFromFeet: 0
    m_Mirror: 0
  m_EditorCurves:
  - curve:
      serializedVersion: 2
      m_Curve:
      - time: 0
        value: -1326
        inSlope: 960.606
        outSlope: 960.606
        tangentMode: 10
      - time: 1.32
        value: -58
        inSlope: 707.9072
        outSlope: 707.9072
        tangentMode: 10
      - time: 2.28
        value: 379
        inSlope: 335.9374
        outSlope: 335.9374
        tangentMode: 10
      - time: 2.4
        value: 405
        inSlope: 216.66644
        outSlope: 216.66644
        tangentMode: 10
      m_PreInfinity: 2
      m_PostInfinity: 2
      m_RotationOrder: 4
    attribute: m_AnchoredPosition.x
    path: 
    classID: 224
    script: {fileID: 0}
  - curve:
      serializedVersion: 2
      m_Curve:
      - time: 0
        value: 31.5
        inSlope: 61.74242
        outSlope: 61.74242
        tangentMode: 10
      - time: 1.32
        value: 113
        inSlope: 32.954544
        outSlope: 32.954544
        tangentMode: 10
      - time: 2.28
        value: 117
        inSlope: -354.1663
        outSlope: -354.1663
        tangentMode: 10
      - time: 2.4
        value: 31.5
        inSlope: -712.49927
        outSlope: -712.49927
        tangentMode: 10
      m_PreInfinity: 2
      m_PostInfinity: 2
      m_RotationOrder: 4
    attribute: m_AnchoredPosition.y
    path: 
    classID: 224
    script: {fileID: 0}
  - curve:
      serializedVersion: 2
      m_Curve:
      - time: 0
        value: 0
        inSlope: 79.16662
        outSlope: 79.16662
        tangentMode: 10
      - time: 1.32
        value: 104.49994
        inSlope: 79.16667
        outSlope: 79.16667
        tangentMode: 10
      - time: 2.4
        value: 190
        inSlope: 79.16672
        outSlope: 79.16672
        tangentMode: 10
      m_PreInfinity: 2
      m_PostInfinity: 2
      m_RotationOrder: 4
    attribute: m_LocalPosition.z
    path: 
    classID: 224
    script: {fileID: 0}
  - curve:
      serializedVersion: 2
      m_Curve:
      - time: 0
        value: 0
        inSlope: 0
        outSlope: 0
        tangentMode: 10
      - time: 2.4
        value: 0
        inSlope: 0
        outSlope: 0
        tangentMode: 10
      m_PreInfinity: 2
      m_PostInfinity: 2
      m_RotationOrder: 4
    attribute: localEulerAnglesRaw.x
    path: 
    classID: 224
    script: {fileID: 0}
  - curve:
      serializedVersion: 2
      m_Curve:
      - time: 0
        value: 0
        inSlope: 0
        outSlope: 0
        tangentMode: 10
      - time: 2.4
        value: 0
        inSlope: 0
        outSlope: 0
        tangentMode: 10
      m_PreInfinity: 2
      m_PostInfinity: 2
      m_RotationOrder: 4
    attribute: localEulerAnglesRaw.y
    path: 
    classID: 224
    script: {fileID: 0}
  - curve:
      serializedVersion: 2
      m_Curve:
      - time: 0
        value: 0
        inSlope: -360
        outSlope: -360
        tangentMode: 10
      - time: 1
        value: -360
        inSlope: -742.4999
        outSlope: -742.4999
        tangentMode: 10
      - time: 1.32
        value: -720
        inSlope: -937.5
        outSlope: -937.5
        tangentMode: 10
      - time: 1.8
        value: -1080
        inSlope: -675
        outSlope: -675
        tangentMode: 10
      - time: 2.4
        value: -1440
        inSlope: -599.9999
        outSlope: -599.9999
        tangentMode: 10
      m_PreInfinity: 2
      m_PostInfinity: 2
      m_RotationOrder: 4
    attribute: localEulerAnglesRaw.z
    path: 
    classID: 224
    script: {fileID: 0}
  m_EulerEditorCurves:
  - curve:
      serializedVersion: 2
      m_Curve: []
      m_PreInfinity: 2
      m_PostInfinity: 2
      m_RotationOrder: 4
    attribute: m_LocalEulerAngles.x
    path: 
    classID: 224
    script: {fileID: 0}
  - curve:
      serializedVersion: 2
      m_Curve: []
      m_PreInfinity: 2
      m_PostInfinity: 2
      m_RotationOrder: 4
    attribute: m_LocalEulerAngles.y
    path: 
    classID: 224
    script: {fileID: 0}
  - curve:
      serializedVersion: 2
      m_Curve: []
      m_PreInfinity: 2
      m_PostInfinity: 2
      m_RotationOrder: 4
    attribute: m_LocalEulerAngles.z
    path: 
    classID: 224
    script: {fileID: 0}
  m_HasGenericRootTransform: 1
  m_HasMotionFloatCurves: 0
  m_GenerateMotionCurves: 0
  m_Events: []
